^C:\USERS\RAINBOWDASH\DOCUMENTS\VISUAL STUDIO 2019\PROJECTS\EXCEPTION1\EXCEPTION1.CPP
/c /ZI /JMC /nologo /W3 /WX- /diagnostics:column /sdl /Od /Oy- /D WIN32 /D _DEBUG /D _CONSOLE /D _UNICODE /D UNICODE /Gm- /EHsc /RTC1 /MDd /GS /fp:precise /permissive- /Zc:wchar_t /Zc:forScope /Zc:inline /Fo"DEBUG\\" /Fd"DEBUG\VC142.PDB" /Gd /TP /analyze- /FC C:\USERS\RAINBOWDASH\DOCUMENTS\VISUAL STUDIO 2019\PROJECTS\EXCEPTION1\EXCEPTION1.CPP
^C:\USERS\RAINBOWDASH\DOCUMENTS\VISUAL STUDIO 2019\PROJECTS\EXCEPTION\EXCEPTION1.CPP
/c /ZI /JMC /nologo /W3 /WX- /diagnostics:column /sdl /Od /Oy- /D WIN32 /D _DEBUG /D _CONSOLE /D _UNICODE /D UNICODE /Gm- /EHsc /RTC1 /MDd /GS /fp:precise /permissive- /Zc:wchar_t /Zc:forScope /Zc:inline /Fo"DEBUG\\" /Fd"DEBUG\VC142.PDB" /Gd /TP /analyze- /FC C:\USERS\RAINBOWDASH\DOCUMENTS\VISUAL STUDIO 2019\PROJECTS\EXCEPTION\EXCEPTION1.CPP
